{
  "type": "service_account",
  "project_id": "cuvrd-live",
  "private_key_id": "30cb630c9f91630021ec96b4fe71866c7a074d9a",
  "private_key": "-----BEGIN PRIVATE KEY-----\nMIIEvgIBADANBgkqhkiG9w0BAQEFAASCBKgwggSkAgEAAoIBAQDHBT5UjNaHoGYe\nG2PyFfnHSoa1JUih9D6Q5g5o65nl+FGcDB90pYl60HfJEh6Vc/+tcCn2ah3pemaK\nud6E/Mj+0gPHL/wTRHFUcnjpFnQXvELw6TPBlPxLsBqE0iv1vQzOf+hCMBHR3RDI\ndNLPv+FS/bN6ZrvDWES2fp9QPNeLMo+eBBcGSvLWsJQ1twNe0y6Hd2NQXYYfdoqq\nfu3BpXcz3If6ThRkZ2YGPrVl+wZOPcaHe3gghjILr81P89Vr+O/qzPL9I52Mvse7\n1lXQuubvcgtdMbfcJ8zSSi33qWECqYJaRZyTiyH0QY4jQqw41ODks3TkYwxzDkQh\n6QX1Pg57AgMBAAECggEAFe8/AmSPVF1aQ+Ey78B6SfutwxM74RWhO6kPV4L38D+h\nBvjTErEX6OBHA3MqycACIuRky5LAfzYNTSbVHoUZxfPxlKd2Oc1mTC9dohrmaqNG\nIXUiTiiUcecT1SWw0KGoYq34NCtGG4Io0l8FyP3V4KazfD8MXKhC0nY8KsS54M5d\nAaOqKyndbtHrdVpBr/9PfRtvV/ITMq9i2XAdJkkZ7gS9/XYJj8lWruxGM6iDHS1D\nTSZNLkuw4pDl0iOHrqgbigNHT3HOuOupTQ3SjYabSjj7zaGQRl9AgaXarAMALm3q\nwEilWzVAh5af1ElCDupMZcvv28Y0KnToRdc8vOzuyQKBgQDkW+76c4vUqxZJrx8p\ng2d1jsIcpCeFGQFICpOTLF0Fpnv6NptINdmdXFiCeNfIE8USETUnYkbhcAinn5wm\nn3RzqD3mGXiggy3tooicppP0Odk3fcBmiXHusKdvWhbB2IaaGaa9XathRODlIAo0\ni/zGlX9He+Tdtk/yF4QBNyHGxQKBgQDfHDTNyn8EWBIBZgghgzRzYibaT95rwCe6\nmm1V4/3Ubp/1tamL3DmOYx9T2snmqVJf8+6MaCmVEtFYZ9CnYoRWMM8DJwolKvBc\nd0HB+jp7vEkwEm5hGOKiu8wPHB0NezmVfMmgzToImmz6tdjL4UlCUgcAKJaRqzt6\nGXCESzfUPwKBgQCc1Y7xr32vl7j87isGxdq+YEdsiEkkHiJFKg5km6lfghHPrMVE\n+Mb2Tj/zi68XGIzWdb79x39KwTkQdow18nl2HWw1pfS0uKNIe8I7ZCRlLX3DoLgN\nNARtnCHCVisfAuie2VMs5zIW4clbU3/uyt3WPUJnA+4RX27Uo9XjR8wIyQKBgBsb\n10Kl9xb1CIMI/bXstkPKykO+bp0TBQDEYMKN6DqWknMNdqNax9eILbdHnz6aljq4\nbeS7h0notm0SeCTOcJv0ZELSzIXFmNzzVJcYK2D7eL0RkD3WAzuYq+uuE82eilmi\nhvE13nZLJTC1RblID1myk80uIVVjw99LFgPNC+SLAoGBAJh+LV0wxPjYwuqQ22z4\nmVV/ktCP0kpZO2eLM16J6Gkby42bllHxFWhHOWOu9tXVZ6jT6PvJrO7rSg58vJ97\nUenvlHPNenuU8R6weZHWsga2seqYPEI6OovSlQf23lsjAer54uq6Jv3tlZCtVodV\nownefPoDJXpqARuqG9TAmyxr\n-----END PRIVATE KEY-----\n",
  "client_email": "firebase-adminsdk-mw4j7@cuvrd-live.iam.gserviceaccount.com",
  "client_id": "101125630323377845844",
  "auth_uri": "https://accounts.google.com/o/oauth2/auth",
  "token_uri": "https://accounts.google.com/o/oauth2/token",
  "auth_provider_x509_cert_url": "https://www.googleapis.com/oauth2/v1/certs",
  "client_x509_cert_url": "https://www.googleapis.com/robot/v1/metadata/x509/firebase-adminsdk-mw4j7%40cuvrd-live.iam.gserviceaccount.com"
}
